…
The most important aspect of a Data Package are its **Data Resources**, which describe and point to the data. You can list all included resources with `resources()`:


```r
resources(package)
#> [1] "reference-data" "gps"            "acceleration"
```

This Data Package has 3 resources. Let's read the data from the `gps` resource into a data frame:


```r
gps <- read_resource(package, "gps")
gps
#> # A tibble: 73,047 × 21
#>     `event-id` visible timestamp           `location-long` `location-lat` bar:barometric-pressur…¹
#>          <dbl> <lgl>   <dttm>                        <dbl>          <dbl>                    <dbl>
#>  1 14256075762 TRUE    2018-05-25 16:11:37            4.25           51.3                       NA
#>  2 14256075763 TRUE    2018-05-25 16:16:41            4.25           51.3                       NA
#>  3 14256075764 TRUE    2018-05-25 16:21:29            4.25           51.3                       NA
#>  4 14256075765 TRUE    2018-05-25 16:26:28            4.25           51.3                       NA
#>  5 14256075766 TRUE    2018-05-25 16:31:21            4.25           51.3                       NA
#>  6 14256075767 TRUE    2018-05-25 16:36:09            4.25           51.3                       NA
#>  7 14256075768 TRUE    2018-05-25 16:40:57            4.25           51.3                       NA
#>  8 14256075769 TRUE    2018-05-25 16:45:55            4.25           51.3                       NA
#>  9 14256075770 TRUE    2018-05-25 16:50:49            4.25           51.3                       NA
#> 10 14256075771 TRUE    2018-05-25 16:55:36            4.25           51.3                       NA
#> # ℹ 73,037 more rows
#> # ℹ abbreviated name: ¹​`bar:barometric-pressure`
#> # ℹ 15 more variables: `external-temperature` <dbl>, `gps:dop` <dbl>,
#> #   `gps:satellite-count` <dbl>, `gps-time-to-fix` <dbl>, `ground-speed` <dbl>, heading <dbl>,
#> #   `height-above-msl` <dbl>, `location-error-numerical` <dbl>, `manually-marked-outlier` <lgl>,
#> #   `vertical-error-numerical` <dbl>, `sensor-type` <chr>,
#> #   `individual-taxon-canonical-name` <chr>, `tag-local-identifier` <chr>, …
```
…
Data from the `media` was not stored in a CSV file, but directly in the `data` property of that resource in `datapackage.json`. `read_resource()` will automatically detect where to read data from.

## Create and edit a Data Package

Data Package is a good format to technically describe your data, e.g. if you are planning to deposit it on research repository. It also goes a long way meeting [FAIR principles](https://www.go-fair.org/fair-principles/).

The frictionless pkg assumes your data are stored as a data frame or CSV files. Let's use the built-in dataset `iris` as your data frame:


```r
# Show content of the data frame "iris"
dplyr::as_tibble(iris)
#> # A tibble: 150 × 5
#>    Sepal.Length Sepal.Width Petal.Length Petal.Width Species
#>           <dbl>       <dbl>        <dbl>       <dbl> <fct>  
#>  1          5.1         3.5          1.4         0.2 setosa 
#>  2          4.9         3            1.4         0.2 setosa 
#>  3          4.7         3.2          1.3         0.2 setosa 
#>  4          4.6         3.1          1.5         0.2 setosa 
#>  5          5           3.6          1.4         0.2 setosa 
#>  6          5.4         3.9          1.7         0.4 setosa 
#>  7          4.6         3.4          1.4         0.3 setosa 
#>  8          5           3.4          1.5         0.2 setosa 
#>  9          4.4         2.9          1.4         0.2 setosa 
#> 10          4.9         3.1          1.5         0.1 setosa 
#> # ℹ 140 more rows
```
…
